/* XPM */
static char * copy_xpm[] = {
"22 22 190 2",
"  	c None",
". 	c #000000",
"+ 	c #040404",
"@ 	c #202020",
"# 	c #1D1D1D",
"$ 	c #191919",
"% 	c #161616",
"& 	c #0E0E0E",
"* 	c #060606",
"= 	c #F1F1F1",
"- 	c #CCCCCC",
"; 	c #C9C9C9",
"> 	c #D3D3D3",
", 	c #DFDFDF",
"' 	c #DDDDDD",
") 	c #0F0F0F",
"! 	c #050505",
"~ 	c #F6F6F6",
"{ 	c #3D3D3D",
"] 	c #2D2D2D",
"^ 	c #222222",
"/ 	c #353535",
"( 	c #E1E1E1",
"_ 	c #D9D9D9",
": 	c #E4E4E4",
"< 	c #E6E6E6",
"[ 	c #E5E5E5",
"} 	c #141418",
"| 	c #E8E8EC",
"1 	c #E9E9EE",
"2 	c #020209",
"3 	c #F9F9F9",
"4 	c #363636",
"5 	c #252525",
"6 	c #181818",
"7 	c #3A3A3A",
"8 	c #17171C",
"9 	c #101083",
"0 	c #141489",
"a 	c #141487",
"b 	c #0F0F83",
"c 	c #0E0E83",
"d 	c #080882",
"e 	c #04047D",
"f 	c #E0E0E0",
"g 	c #DBDBDB",
"h 	c #E7E7E7",
"i 	c #D7D7D7",
"j 	c #DFDFE0",
"k 	c #0F0F19",
"l 	c #0E0E85",
"m 	c #E3E3EF",
"n 	c #E7E7EE",
"o 	c #E1E1EA",
"p 	c #E2E2EA",
"q 	c #E5E5F0",
"r 	c #090986",
"s 	c #000081",
"t 	c #242424",
"u 	c #2E2E2E",
"v 	c #E5E5EC",
"w 	c #18188C",
"x 	c #EAEAF2",
"y 	c #252526",
"z 	c #10108E",
"A 	c #3538F3",
"B 	c #030383",
"C 	c #F5F5F5",
"D 	c #D1D1D1",
"E 	c #E2E2EC",
"F 	c #222294",
"G 	c #E0E0E9",
"H 	c #E3E3E4",
"I 	c #D4D4D4",
"J 	c #E3E3E3",
"K 	c #DFDFE9",
"L 	c #1A1A93",
"M 	c #807EF6",
"N 	c #3B3DF7",
"O 	c #F8F8F8",
"P 	c #1B1B1B",
"Q 	c #2F2F2F",
"R 	c #323232",
"S 	c #E5E5EE",
"T 	c #272795",
"U 	c #E0E0EB",
"V 	c #393939",
"W 	c #343434",
"X 	c #3B3B3B",
"Y 	c #DEDEEB",
"Z 	c #1F1F94",
"` 	c #D6D6F1",
" .	c #807EF5",
"..	c #3538F4",
"+.	c #DADADA",
"@.	c #E2E2E2",
"#.	c #CFCFCF",
"$.	c #DCDCE7",
"%.	c #2D2D98",
"&.	c #D5D5E1",
"*.	c #D8D8D9",
"=.	c #C4C4C4",
"-.	c #C2C2C2",
";.	c #D6D6D7",
">.	c #DADAE3",
",.	c #31319A",
"'.	c #202093",
").	c #191991",
"!.	c #0E0E8C",
"~.	c #050585",
"{.	c #020281",
"].	c #262626",
"^.	c #1C1C1C",
"/.	c #E1E1EC",
"(.	c #2E2E99",
"_.	c #DADAE7",
":.	c #434344",
"<.	c #3F3F3F",
"[.	c #414141",
"}.	c #494949",
"|.	c #ECECF5",
"1.	c #E8E8F3",
"2.	c #EEEEF5",
"3.	c #F2F2F9",
"4.	c #F1F1F9",
"5.	c #050583",
"6.	c #2E2E98",
"7.	c #D4D4E0",
"8.	c #C0C0C0",
"9.	c #BFBFBF",
"0.	c #CACACB",
"a.	c #D6D6D6",
"b.	c #E8E8E8",
"c.	c #EDEDED",
"d.	c #F4F4F9",
"e.	c #070784",
"f.	c #313131",
"g.	c #E4E4ED",
"h.	c #282896",
"i.	c #DFDFEA",
"j.	c #3C3C3C",
"k.	c #373737",
"l.	c #2B2B2B",
"m.	c #212121",
"n.	c #F5F5F9",
"o.	c #060684",
"p.	c #F4F4F4",
"q.	c #D8D8D8",
"r.	c #DDDDDF",
"s.	c #DADAE4",
"t.	c #1D1D8E",
"u.	c #DEDEE7",
"v.	c #CDCDCD",
"w.	c #F0F0F0",
"x.	c #F3F3F7",
"y.	c #060683",
"z.	c #030303",
"A.	c #151515",
"B.	c #121212",
"C.	c #0D0D0D",
"D.	c #0A0A13",
"E.	c #141488",
"F.	c #E7E7F0",
"G.	c #29292A",
"H.	c #282828",
"I.	c #292929",
"J.	c #272727",
"K.	c #232323",
"L.	c #F8F8FB",
"M.	c #E5E5ED",
"N.	c #EAEAEA",
"O.	c #DCDCDC",
"P.	c #F3F3F3",
"Q.	c #F7F7F9",
"R.	c #040483",
"S.	c #E8E8F2",
"T.	c #262627",
"U.	c #F9F9FC",
"V.	c #040482",
"W.	c #F0F0F6",
"X.	c #F0F0F4",
"Y.	c #EFEFF3",
"Z.	c #EFEFF4",
"`.	c #F1F1F5",
" +	c #E3E3EA",
".+	c #E7E7ED",
"++	c #03037F",
"@+	c #070783",
"#+	c #080883",
"$+	c #030380",
"                                            ",
"                                            ",
". + @ # $ % & *                             ",
". = - ; > , ' ) !                           ",
". ~ { ] ^ / ( # ' )                         ",
". ~ , _ : < [ } | 1 2                       ",
". 3 4 5 6 7 ( 8 9 0 a b c c d e             ",
". ~ f g h i j k l m n o p n q r s           ",
". 3 / t $ u 5 v w x y ^ ^ y x z A B         ",
". C , g : D : E F G H I I J K L M N B       ",
". O / 5 P Q R S T U V W / X Y Z `  ...s     ",
". C , +.@.#.( $.%.&.*.=.-.;.>.,.'.).!.~.{.  ",
". O / ].^.Q W /.(._.:.<.[.}.1 |.1.2.3.4.5.  ",
". C , +.@.#.( $.6.7.i 8.9.0.a.J b.c.~ d.e.  ",
". O / 5 P u f.g.h.i.j.V 7 7 k.f.l.m.^.n.o.  ",
". p.q._ J #.r.s.t.u.f #.v.v.#.I _ @.w.x.y.  ",
". z.A.B.C.A.B.D.E.F.G.H.I.I.J.K.@ P % L.5.  ",
"                c M.N.' O.O.' , J J P.Q.R.  ",
"                b S.y K.t t K.^ T.Q $ U.R.  ",
"                V.W.x.X.X.Y.Z.`. +.+n.n.R.  ",
"                ++y.@+#+#+#+#+#+@+@+y.5.$+  ",
"                                            "};
