/* XPM */
static char * document10_xpm[] = {
"12 16 101 2",
"  	c None",
". 	c #040404",
"+ 	c #FFFFFF",
"@ 	c #F8F8F8",
"# 	c #F4F4F4",
"$ 	c #F3F3F3",
"% 	c #C8C8C8",
"& 	c #FAFAFA",
"* 	c #FCFCFB",
"= 	c #FEFEFD",
"- 	c #E5E5E5",
"; 	c #080808",
"> 	c #E8E8E6",
", 	c #EAEBDD",
"' 	c #EFF0E1",
") 	c #F6F6EE",
"! 	c #C7C7C5",
"~ 	c #0A0A0A",
"{ 	c #DEDED9",
"] 	c #CFD0A6",
"^ 	c #E2E3C9",
"/ 	c #F3F3E8",
"( 	c #CECFCC",
"_ 	c #000000",
": 	c #0B0B0B",
"< 	c #DCDCD9",
"[ 	c #E4E5D0",
"} 	c #EAEBD8",
"| 	c #F5F5EC",
"1 	c #EEEEEC",
"2 	c #F3F7F3",
"3 	c #070707",
"4 	c #E5E5E2",
"5 	c #E8E9D5",
"6 	c #E4E4E1",
"7 	c #C2C388",
"8 	c #808304",
"9 	c #828508",
"0 	c #888B14",
"a 	c #FDFDFB",
"b 	c #F2F2F2",
"c 	c #050505",
"d 	c #E7E7E4",
"e 	c #ECEDDD",
"f 	c #FDFDFA",
"g 	c #F7F7EF",
"h 	c #F7F7F1",
"i 	c #D7D7D7",
"j 	c #101010",
"k 	c #E6E6E1",
"l 	c #F3F3EA",
"m 	c #FAFAF5",
"n 	c #F4F5EB",
"o 	c #F0F0E8",
"p 	c #B1B2B0",
"q 	c #202020",
"r 	c #DBDBBD",
"s 	c #F8F8F3",
"t 	c #F3F3E7",
"u 	c #ABAE5A",
"v 	c #B3B569",
"w 	c #CCCE9D",
"x 	c #E0E0D3",
"y 	c #A2A29F",
"z 	c #282828",
"A 	c #DADAD7",
"B 	c #F1F1EB",
"C 	c #F5F6EF",
"D 	c #ECECDB",
"E 	c #E3E4CA",
"F 	c #D7D8B2",
"G 	c #DFE0C4",
"H 	c #DADACC",
"I 	c #9D9D9A",
"J 	c #2A2A2A",
"K 	c #060606",
"L 	c #E6E6E6",
"M 	c #F4F4F3",
"N 	c #EAEAE7",
"O 	c #EBEBE7",
"P 	c #E5E5DE",
"Q 	c #E2E2DB",
"R 	c #E0E0DD",
"S 	c #A4A4A3",
"T 	c #1E1E1E",
"U 	c #020202",
"V 	c #EBEBEB",
"W 	c #CDCDCC",
"X 	c #B3B3B2",
"Y 	c #A9A9A9",
"Z 	c #B2B2B2",
"` 	c #AAAAAA",
" .	c #AEAEAE",
"..	c #A5A5A5",
"+.	c #010101",
"@.	c #090909",
"#.	c #151515",
"$.	c #181818",
"%.	c #141414",
"&.	c #171717",
"*.	c #121212",
". . . . . . .           ",
". + @ # $ $ . .         ",
". % & * = - . + .       ",
"; > , ' ) ! . + + .     ",
"~ { ] ^ / ( . . . . _   ",
": < [ } | 1 2 + + + _   ",
"3 4 5 + + + + + + + _   ",
"3 6 7 8 8 + 9 0 a b c   ",
"3 d e + + + f g h i j   ",
"3 k l + + + m n o p q   ",
"~ < r s t u v w x y z   ",
": A B C D E F G H I J   ",
"K L M 1 N O P Q R S T   ",
"U V W X Y Z Y `  ...:   ",
"_ +.@.#.$.%.$.&.*.c _   ",
"                        "};
